packages/openqlab/openqlab-0.1.11.3-py2.py3-none-any.whl/tests/test_io/test_importers/data_files/Gwinstek/mode_fast.csv

Format,1.0B,
Memory Length,10000,
IntpDistance,0,
Trigger Address,4369,
Trigger Level,4.800E+00,
Source,CH1,
Vertical Units,V,
Vertical Units Div,0,
Vertical Units Extend Div,15,
Label, ,
Probe Type,0,
Probe Ratio,1.000E+00,
Vertical Scale,1.000E-03,
Vertical Position,-2.200E-03,
Horizontal Units,S,
Horizontal Scale,5.000E-02,
Horizontal Position,3.150E-02,
Horizontal Mode,Main,
SincET Mode,Real Time,
Sampling Period,5.000E-05,
Horizontal Old Scale,5.000E-02,
Horizontal Old Position,3.150E-02,
Firmware,V1.09,
Mode,Fast,
Waveform Data,
0,
4,
-6,
-3,
-6,
-3,
0,
-3,
-6,
0,
-3,
-3,
-3,
-3,
-6,
-3,
-3,
-6,
-3,
0,
0,
0,
-3,
0,
0,
-3,
-3,
0,
0,
-6,
-9,
-3,
-6,
0,
0,
-3,
-6,
4,
0,
0,
-6,
-3,
-9,
-6,
0,
0,
-3,
-6,
-3,
-3,
-3,
-3,
0,
-6,
-3,
-6,
0,
0,
0,
-3,
-6,
-6,
-6,
-3,
-3,
-6,
-3,
-3,
4,
-6,
-6,
-6,
0,
-3,
-3,
-3,
0,
-6,
4,
-3,
0,
-6,
4,
0,
-3,
0,
-3,
-3,
0,
-3,
0,
0,
-3,
0,
0,
0,
-3,
-9,
-6,
0,
0,
0,
-6,
-6,
-6,
0,
-3,
-3,
-9,
-3,
0,
-3,
0,
0,
-3,
-3,
0,
-6,
0,
-3,
-9,
-6,
0,
-3,
-6,
-3,
4,
0,
0,
-6,
-3,
0,
-3,
-3,
0,
-3,
0,
-3,
4,
0,
4,
4,
-3,
0,
0,
-6,
-3,
-3,
-9,
-3,
7,
0,
0,
-3,
-9,
-3,
-6,
0,
-3,
0,
0,
-3,
-6,
-3,
4,
-3,
4,
-6,
0,
-6,
0,
-6,
0,
-3,
-3,
-3,
0,
-3,
-3,
-9,
4,
-6,
-6,
-3,
4,
-3,
10,
-3,
0,
-3,
0,
0,
-3,
0,
-3,
0,
0,
0,
4,
-3,
-3,
-3,
0,
4,
4,
-6,
0,
-3,
-3,
-6,
0,
-6,
-3,
-3,
0,
-3,
0,
0,
4,
0,
-3,
0,
0,
0,
0,
0,
4,
0,
-3,
0,
-3,
-3,
0,
-3,
-3,
-3,
4,
-6,
4,
-3,
0,
-6,
4,
0,
-3,
-3,
7,
-3,
7,
-3,
0,
4,
4,
7,
-3,
-6,
10,
-3,
-6,
-3,
4,
-3,
4,
0,
4,
0,
0,
-6,
4,
4,
7,
-6,
-3,
-3,
-3,
-3,
4,
-3,
-3,
-3,
0,
-3,
0,
0,
4,
0,
0,
-3,
0,
-3,
0,
-3,
4,
0,
4,
-3,
-6,
-3,
0,
0,
-3,
-3,
4,
-3,
0,
-6,
0,
0,
4,
-6,
4,
0,
-3,
-3,
0,
-3,
4,
-3,
0,
-3,
4,
-6,
4,
4,
-3,
0,
0,
0,
-3,
4,
4,
0,
7,
0,
-3,
-3,
0,
0,
0,
0,
-3,
-6,
4,
-3,
4,
-6,
-3,
4,
0,
4,
7,
-3,
0,
-3,
0,
-6,
4,
-3,
0,
4,
-3,
-3,
-9,
-3,
0,
4,
0,
-6,
4,
-6,
4,
-6,
4,
-6,
-3,
0,
4,
-3,
4,
4,
0,
-6,
0,
0,
-6,
-3,
-6,
-6,
0,
0,
-6,
4,
0,
-3,
0,
4,
-3,
-3,
-3,
-6,
0,
-3,
4,
-6,
-3,
-3,
0,
0,
-3,
-3,
4,
4,
-6,
0,
-9,
-6,
-6,
-3,
-3,
-3,
-9,
-3,
0,
-3,
-3,
-6,
-6,
-3,
0,
-3,
-3,
0,
-3,
-3,
-6,
-3,
-9,
-3,
-6,
-3,
-9,
-6,
-6,
-3,
-6,
0,
0,
-6,
-6,
-3,
4,
-6,
-6,
-6,
0,
-6,
0,
-3,
0,
-6,
-6,
-3,
-6,
-3,
7,
-6,
-6,
0,
-9,
-3,
-3,
-3,
-6,
-6,
-3,
-3,
-6,
4,
0,
0,
0,
-6,
0,
-3,
-6,
-6,
-6,
-3,
0,
-3,
-3,
-6,
-3,
-3,
0,
-6,
-9,
-3,
0,
-3,
-6,
0,
0,
0,
-6,
-9,
0,
4,
-6,
-6,
0,
-3,
-3,
-3,
-3,
4,
-3,
-3,
-9,
-3,
-9,
-6,
4,
-6,
4,
-3,
4,
-6,
0,
0,
-6,
0,
-3,
-3,
0,
-3,
7,
-6,
-3,
-9,
-3,
-3,
-3,
-3,
-3,
0,
0,
-3,
0,
4,
-3,
-3,
-9,
-6,
-6,
-3,
0,
-6,
-3,
-6,
4,
-6,
0,
-3,
-3,
0,
-6,
-6,
-3,
0,
-3,
-3,
-3,
-3,
-3,
0,
-3,
-3,
0,
-3,
-6,
-6,
0,
-9,
-3,
-3,
0,
-3,
4,
-3,
0,
0,
0,
0,
0,
0,
-6,
-3,
-3,
0,
0,
0,
-3,
0,
-3,
-3,
0,
-6,
-3,
4,
0,
-3,
-6,
0,
-3,
4,
-3,
-3,
-3,
-6,
4,
-6,
4,
-6,
-3,
-3,
-3,
0,
0,
-3,
0,
-6,
0,
-3,
0,
-3,
0,
4,
0,
-3,
-6,
-6,
0,
0,
-3,
-3,
0,
-6,
4,
0,
0,
0,
-3,
0,
0,
-3,
-9,
-6,
-6,
-3,
0,
-3,
0,
-3,
-3,
4,
-6,
-6,
0,
-3,
-3,
-6,
0,
-6,
0,
-3,
-6,
-3,
-3,
-3,
-6,
0,
-6,
4,
-3,
-3,
0,
-3,
-3,
0,
-9,
-9,
-3,
-6,
0,
0,
-6,
-3,
-3,
0,
-3,
-3,
-3,
-3,
0,
-3,
-6,
-3,
-3,
-3,
0,
-3,
-9,
0,
-3,
-6,
-3,
4,
4,
0,
0,
0,
-6,
-6,
4,
-6,
0,
-3,
-3,
-3,
0,
0,
0,
-3,
-3,
-9,
4,
0,
-9,
-3,
0,
-3,
0,
-3,
-9,
-3,
0,
-3,
0,
0,
-6,
0,
0,
-3,
-3,
-3,
0,
-3,
7,
-3,
7,
0,
4,
0,
0,
-3,
-6,
0,
-6,
-9,
-3,
-6,
-6,
-6,
-3,
-3,
-6,
0,
-6,
-6,
-3,
0,
-6,
-3,
0,
-6,
-6,
-3,
0,
0,
4,
-3,
0,
-6,
0,
-3,
-6,
0,
-6,
-3,
0,
-3,
-6,
-6,
-6,
0,
4,
-3,
0,
4,
-3,
0,
4,
4,
4,
0,
-3,
0,
0,
0,
0,
0,
-3,
0,
10,
0,
-3,
4,
4,
-6,
0,
-3,
4,
-3,
-3,
-3,
-6,
-3,
4,
0,
0,
0,
-6,
0,
4,
0,
-6,
0,
0,
0,
0,
0,
4,
-6,
4,
-3,
0,
4,
0,
-3,
4,
4,
0,
-3,
4,
0,
0,
-6,
-3,
0,
0,
0,
0,
0,
-3,
-3,
-3,
-3,
0,
-3,
0,
-3,
0,
0,
0,
0,
-3,
0,
-3,
0,
0,
4,
0,
-6,
4,
-3,
0,
-3,
0,
-3,
-3,
0,
0,
-3,
0,
-3,
-3,
0,
0,
0,
0,
-6,
-3,
0,
4,
0,
4,
0,
0,
-3,
0,
-3,
4,
4,
-3,
-3,
-3,
-6,
-3,
0,
-3,
-6,
-9,
-3,
-3,
-6,
-6,
-3,
-9,
-3,
-6,
-6,
-3,
-3,
-9,
-6,
-3,
4,
4,
-3,
0,
-6,
0,
-3,
0,
-3,
0,
-9,
0,
0,
0,
0,
0,
0,
0,
0,
-3,
-3,
7,
-6,
0,
-6,
0,
0,
4,
-6,
-3,
-6,
-6,
-3,
-6,
-3,
-6,
-6,
-3,
-3,
4,
-6,
-3,
-3,
0,
-6,
0,
0,
-3,
0,
0,
-3,
0,
-6,
-3,
0,
4,
-6,
0,
0,
-3,
-3,
-3,
0,
-3,
-3,
0,
-6,
-3,
-3,
0,
0,
-6,
0,
-3,
-6,
-3,
-3,
-3,
-6,
0,
-3,
-3,
0,
-6,
0,
0,
-3,
7,
-3,
4,
-6,
-6,
4,
4,
-3,
4,
-6,
10,
-6,
0,
-3,
4,
4,
-3,
-3,
4,
0,
0,
4,
0,
0,
-3,
-6,
4,
-6,
4,
-3,
0,
4,
0,
0,
-3,
-3,
-3,
0,
-3,
4,
-6,
0,
-3,
4,
0,
0,
-3,
0,
-3,
-3,
4,
-3,
0,
0,
0,
0,
4,
4,
4,
-6,
0,
-3,
4,
0,
-3,
-3,
0,
-3,
-3,
-3,
-3,
-3,
0,
-3,
4,
-6,
-3,
-3,
4,
0,
4,
0,
-3,
-6,
0,
-6,
-6,
-6,
0,
-6,
0,
-3,
0,
0,
0,
-3,
4,
0,
0,
0,
0,
0,
4,
-3,
0,
-6,
0,
0,
0,
-3,
4,
-3,
0,
-6,
-3,
-3,
4,
-6,
0,
-3,
-3,
0,
0,
-3,
4,
-3,
0,
-6,
4,
0,
4,
0,
-3,
10,
-3,
0,
0,
-3,
4,
-3,
0,
-6,
4,
-6,
0,
4,
4,
-6,
0,
-3,
4,
-3,
-3,
4,
4,
-3,
-3,
-3,
-6,
0,
0,
-3,
0,
0,
4,
4,
7,
-3,
-6,
-9,
4,
0,
-6,
-3,
4,
-3,
-6,
-6,
0,
-3,
0,
0,
-6,
-6,
4,
0,
0,
4,
4,
-3,
-3,
-3,
4,
4,
-6,
-3,
-3,
0,
4,
-3,
4,
0,
0,
0,
4,
-6,
0,
-3,
4,
-3,
0,
-3,
-6,
-6,
0,
0,
-12,
-3,
-9,
-3,
4,
-3,
0,
-9,
0,
-3,
0,
0,
4,
-6,
4,
-6,
0,
0,
4,
0,
4,
-6,
4,
-3,
7,
0,
-3,
0,
-3,
0,
4,
-3,
-6,
-6,
4,
0,
0,
-3,
-3,
-3,
-3,
-3,
4,
-6,
4,
0,
0,
-6,
0,
0,
-3,
0,
-3,
-3,
-3,
0,
7,
0,
0,
-3,
4,
-6,
4,
-6,
-3,
-6,
-3,
-6,
-3,
-9,
-6,
-3,
-3,
-6,
-3,
-3,
0,
0,
-6,
-3,
-6,
0,
-6,
-6,
0,
-3,
0,
-3,
0,
-6,
0,
-3,
-6,
-6,
-6,
0,
-3,
0,
0,
0,
0,
-3,
-9,
-3,
-6,
-3,
0,
-6,
-9,
-6,
-6,
-3,
0,
-3,
-3,
0,
-3,
-6,
4,
-3,
-6,
-3,
-3,
-6,
-3,
-3,
-3,
-3,
-6,
-6,
-3,
0,
-3,
-6,
-6,
-3,
-3,
-3,
4,
-6,
0,
-3,
-3,
0,
0,
0,
4,
-3,
0,
0,
-3,
0,
-3,
-3,
-3,
-6,
-3,
4,
-6,
-3,
0,
-6,
-6,
-3,
-3,
0,
-3,
0,
4,
-3,
0,
-6,
4,
0,
0,
-3,
4,
-6,
0,
-3,
0,
-3,
0,
-6,
4,
-6,
-3,
-3,
0,
-3,
0,
-6,
-3,
-3,
4,
0,
0,
0,
0,
0,
4,
0,
4,
-3,
0,
0,
0,
-3,
0,
4,
-3,
-6,
-3,
-3,
-3,
-3,
0,
-3,
7,
-3,
4,
-3,
0,
0,
-6,
-3,
-3,
0,
0,
-6,
-3,
0,
4,
0,
4,
-6,
4,
-6,
0,
-6,
4,
-3,
4,
-3,
0,
-6,
4,
-6,
7,
0,
-3,
-3,
-9,
-6,
-3,
-3,
0,
-6,
0,
-6,
-9,
0,
-6,
-3,
0,
-3,
-6,
0,
-3,
-3,
-3,
-3,
-6,
-3,
0,
0,
-9,
0,
0,
0,
-3,
0,
-3,
0,
-3,
0,
0,
-9,
4,
4,
7,
-6,
-3,
-3,
-3,
-3,
0,
-3,
4,
-3,
0,
-6,
-3,
-3,
-6,
0,
-6,
-3,
0,
-3,
4,
0,
0,
4,
0,
0,
4,
-3,
0,
-3,
0,
-3,
0,
-6,
4,
-3,
0,
-3,
0,
-3,
0,
0,
0,
0,
0,
0,
7,
-3,
-3,
-6,
0,
0,
0,
-6,
0,
-3,
0,
4,
0,
0,
-3,
-6,
0,
-9,
4,
-3,
4,
0,
0,
4,
4,
-3,
0,
0,
-6,
-6,
0,
-6,
0,
-3,
0,
0,
4,
0,
0,
0,
4,
4,
-3,
-6,
4,
-3,
0,
4,
0,
-3,
0,
0,
4,
-6,
4,
-3,
-3,
-6,
0,
-3,
7,
-3,
-6,
-3,
-6,
-6,
-3,
-3,
4,
0,
-6,
-3,
7,
0,
0,
-3,
0,
-3,
7,
4,
0,
0,
0,
-3,
7,
4,
-3,
0,
4,
0,
4,
-3,
4,
-3,
0,
0,
0,
0,
0,
0,
7,
-3,
-3,
-3,
0,
-3,
-3,
0,
4,
4,
4,
-9,
0,
0,
0,
0,
-3,
-6,
4,
-3,
7,
0,
-6,
-3,
-6,
-3,
-6,
-3,
-6,
-3,
4,
-3,
7,
4,
-3,
-3,
-6,
-3,
-6,
-12,
-3,
0,
-9,
4,
-3,
-3,
0,
-3,
4,
-3,
-3,
0,
0,
-3,
0,
0,
7,
-3,
-3,
-6,
4,
-3,
0,
0,
4,
0,
-3,
-3,
-3,
0,
-6,
0,
4,
4,
0,
-3,
-3,
-3,
-6,
-3,
-3,
0,
4,
-6,
-6,
0,
0,
0,
-3,
-3,
0,
-6,
-6,
4,
0,
-6,
0,
4,
0,
4,
-9,
4,
-6,
0,
-3,
-3,
-3,
0,
0,
0,
-6,
-6,
-6,
0,
0,
0,
-3,
0,
-3,
-3,
0,
-6,
0,
0,
0,
0,
4,
-3,
4,
-3,
0,
0,
-6,
0,
0,
-3,
-3,
0,
-9,
-3,
-3,
-3,
4,
4,
0,
-3,
-3,
0,
4,
-3,
4,
4,
4,
-6,
0,
-3,
4,
0,
4,
4,
0,
0,
0,
-3,
7,
4,
4,
0,
-3,
7,
0,
4,
4,
0,
0,
-3,
0,
0,
4,
-6,
0,
-6,
0,
-9,
4,
0,
4,
-3,
0,
0,
0,
0,
-3,
0,
0,
0,
0,
4,
4,
0,
0,
0,
-3,
4,
-3,
-6,
0,
-3,
-3,
0,
0,
0,
4,
4,
7,
0,
0,
-3,
0,
0,
0,
-3,
-3,
-3,
7,
-6,
0,
0,
0,
0,
0,
0,
0,
4,
4,
0,
4,
0,
4,
-6,
-3,
0,
4,
-3,
0,
0,
4,
-6,
4,
0,
-3,
0,
7,
4,
7,
4,
0,
0,
0,
-3,
4,
0,
-3,
7,
-3,
0,
-3,
-3,
-3,
-3,
0,
4,
-3,
0,
-9,
0,
-3,
-3,
4,
-3,
-3,
-3,
0,
4,
0,
-3,
7,
-3,
0,
0,
4,
-3,
0,
-6,
0,
0,
4,
-3,
-3,
4,
0,
4,
0,
0,
4,
0,
0,
0,
4,
-3,
4,
-3,
4,
-6,
7,
0,
4,
0,
-3,
0,
4,
0,
0,
0,
4,
0,
0,
-6,
4,
-6,
7,
0,
-3,
0,
4,
-3,
-3,
-3,
4,
0,
4,
0,
0,
-3,
-3,
-3,
10,
0,
4,
-6,
4,
7,
0,
-3,
7,
-3,
4,
0,
4,
0,
4,
-3,
4,
-3,
-3,
0,
-3,
-3,
0,
-3,
-9,
0,
-6,
-3,
-6,
0,
-6,
-3,
-6,
0,
-3,
0,
-6,
-6,
-6,
-3,
-6,
0,
-3,
0,
-6,
-6,
0,
0,
4,
-3,
0,
0,
4,
0,
-6,
-3,
0,
-3,
-3,
0,
0,
-3,
-3,
-3,
0,
-6,
-9,
0,
-3,
-3,
4,
-3,
-3,
0,
4,
-6,
-3,
-3,
4,
-3,
4,
-3,
-3,
0,
0,
0,
-3,
0,
4,
-3,
4,
0,
-3,
-3,
0,
0,
4,
0,
-6,
0,
4,
4,
4,
7,
-3,
-3,
-6,
-3,
4,
0,
4,
-3,
0,
-6,
0,
-6,
-9,
-3,
0,
-6,
-3,
-6,
0,
0,
-3,
0,
4,
-6,
10,
0,
0,
-6,
-9,
-3,
-9,
-6,
0,
-3,
0,
-3,
4,
-3,
-3,
4,
-6,
0,
-9,
-6,
-6,
-3,
-9,
-3,
-6,
-6,
0,
0,
0,
-3,
0,
0,
0,
-6,
0,
-6,
-3,
-6,
-9,
0,
-9,
0,
-3,
-9,
0,
-3,
0,
-3,
-3,
0,
0,
0,
0,
4,
-3,
-6,
-3,
-6,
0,
-3,
4,
-3,
0,
4,
4,
-3,
-6,
-6,
-6,
-6,
-3,
0,
-3,
-6,
-6,
-3,
-6,
-3,
0,
0,
-6,
-3,
0,
-3,
0,
0,
0,
-3,
-6,
0,
0,
-3,
0,
-3,
4,
0,
0,
-3,
0,
0,
0,
-3,
0,
-3,
4,
0,
0,
0,
0,
0,
0,
4,
-3,
-3,
-3,
-3,
-3,
-3,
-3,
-3,
-6,
-3,
-6,
-3,
-6,
-6,
4,
-3,
-3,
-6,
7,
-3,
0,
-3,
0,
-6,
0,
-6,
0,
0,
-3,
-6,
-6,
-3,
4,
0,
0,
4,
0,
-3,
4,
-3,
0,
-3,
4,
4,
-3,
-3,
-9,
0,
-6,
-6,
-3,
-6,
-9,
-6,
0,
0,
0,
0,
4,
-3,
4,
0,
0,
-9,
4,
-3,
4,
-9,
4,
-3,
4,
-3,
4,
4,
0,
-3,
7,
-6,
0,
0,
-3,
0,
0,
-3,
4,
-6,
0,
-3,
-3,
0,
-3,
-3,
-6,
-3,
0,
0,
4,
0,
-3,
-6,
-6,
-3,
0,
0,
0,
-3,
-6,
-3,
0,
0,
0,
-3,
-6,
-6,
-9,
0,
0,
-3,
-9,
-3,
4,
0,
-6,
-6,
-3,
-3,
0,
-3,
-3,
0,
-3,
-3,
0,
-3,
0,
-6,
4,
0,
-3,
-3,
-6,
-6,
0,
0,
4,
-3,
4,
-3,
-3,
0,
7,
-3,
-6,
-3,
-3,
-6,
-3,
-3,
0,
0,
-3,
-6,
0,
-3,
-9,
-3,
-6,
-6,
-6,
-6,
0,
-6,
0,
-6,
0,
-6,
-3,
-6,
-3,
0,
0,
-3,
-6,
-3,
-3,
-3,
-6,
-3,
-6,
-6,
-3,
-6,
-6,
0,
-6,
-6,
-3,
-6,
0,
-3,
-6,
-6,
0,
-6,
-9,
-3,
-6,
-9,
-3,
-6,
4,
-3,
0,
0,
0,
-3,
0,
-6,
0,
-6,
-9,
-9,
-6,
-6,
-3,
-3,
-9,
0,
-3,
-6,
-9,
0,
-3,
-3,
0,
-3,
-6,
4,
4,
-3,
-6,
-6,
-6,
-3,
-3,
-6,
-6,
-6,
-3,
-3,
-6,
-3,
-3,
0,
4,
-6,
-9,
-3,
-3,
-6,
-6,
-3,
-9,
0,
-3,
-3,
-6,
0,
-6,
-3,
0,
-3,
-3,
-3,
0,
4,
-6,
-6,
-3,
0,
0,
0,
-6,
0,
-6,
-3,
0,
-6,
4,
-3,
-6,
-6,
0,
-3,
4,
-3,
-6,
-6,
-6,
-3,
-6,
-3,
4,
0,
4,
-3,
-3,
-3,
4,
-3,
-3,
0,
-3,
-3,
0,
4,
4,
0,
7,
-3,
4,
-6,
0,
-3,
4,
-3,
4,
-6,
4,
-3,
0,
-3,
-3,
0,
4,
0,
0,
-3,
-6,
0,
4,
4,
4,
-6,
-3,
-3,
-3,
0,
4,
0,
0,
0,
-3,
0,
4,
-6,
4,
0,
0,
-3,
-3,
4,
0,
0,
0,
-3,
0,
0,
0,
-3,
0,
-3,
0,
0,
0,
-3,
-3,
-6,
-6,
-6,
-3,
4,
0,
0,
0,
-3,
-3,
0,
-3,
-3,
4,
0,
-3,
4,
0,
-6,
-9,
-3,
4,
-6,
-3,
-3,
4,
-3,
0,
0,
-6,
-3,
4,
0,
4,
-3,
0,
-3,
0,
4,
-3,
0,
0,
0,
0,
-3,
-6,
-3,
4,
-3,
0,
-3,
0,
0,
-6,
4,
0,
-3,
7,
4,
-3,
-3,
4,
0,
0,
-6,
0,
-3,
4,
-3,
4,
-6,
0,
-3,
0,
-3,
-6,
-3,
-6,
-3,
-6,
-3,
-3,
0,
0,
-6,
0,
0,
0,
-6,
-3,
-3,
0,
-3,
0,
-6,
-3,
0,
0,
-3,
-3,
0,
-9,
-3,
-3,
-6,
-3,
-3,
-6,
-3,
-3,
0,
-3,
-6,
-6,
-6,
0,
-3,
-3,
-3,
-3,
-3,
-3,
-3,
-6,
-3,
7,
-3,
0,
-3,
0,
4,
0,
-3,
0,
0,
7,
0,
0,
-3,
7,
0,
0,
-3,
4,
-3,
0,
-6,
0,
-6,
4,
0,
-3,
-3,
4,
-3,
-6,
0,
0,
-6,
-9,
-6,
-6,
-6,
-6,
-3,
-6,
0,
4,
-3,
4,
-6,
-6,
-6,
0,
0,
-3,
0,
-9,
-3,
-3,
-3,
-3,
-3,
-6,
-3,
0,
-6,
7,
-3,
0,
-3,
-6,
0,
-3,
-6,
-3,
-3,
-9,
-3,
-6,
-3,
4,
-9,
4,
-6,
0,
0,
-6,
-3,
0,
-3,
-9,
-3,
-6,
-6,
-3,
-6,
-3,
-3,
-6,
-3,
-3,
-3,
-3,
-6,
-3,
-6,
-3,
-6,
-6,
-3,
0,
-3,
0,
-3,
-9,
-6,
0,
0,
-3,
-3,
-3,
-6,
4,
0,
-3,
-3,
-6,
0,
-9,
-3,
4,
0,
-3,
-3,
0,
0,
-6,
0,
-3,
0,
0,
0,
-6,
-3,
0,
-3,
-3,
0,
4,
-6,
4,
-3,
-3,
-3,
4,
4,
0,
-3,
4,
-6,
4,
-3,
0,
0,
-3,
0,
-6,
-3,
0,
-3,
0,
0,
4,
0,
-3,
0,
4,
0,
-6,
-6,
-3,
-3,
-6,
0,
-6,
-3,
0,
-6,
-3,
-3,
-6,
0,
-3,
-3,
-6,
-6,
-6,
-6,
-3,
-3,
-6,
-6,
-3,
-3,
-6,
-6,
-3,
-3,
0,
-3,
0,
0,
-6,
-6,
-6,
-6,
0,
0,
0,
-3,
0,
0,
0,
4,
0,
-3,
4,
0,
0,
-3,
-3,
-6,
-3,
4,
4,
-3,
-9,
-3,
0,
0,
-6,
-3,
4,
0,
-6,
-9,
-6,
0,
4,
-3,
4,
0,
-6,
0,
4,
-6,
-3,
0,
0,
0,
0,
-3,
4,
-3,
-6,
-6,
0,
-12,
0,
-3,
-3,
0,
-6,
-3,
0,
-3,
4,
-3,
-6,
0,
0,
-3,
-6,
-6,
-3,
0,
0,
0,
0,
0,
0,
-6,
4,
0,
0,
-3,
0,
4,
-3,
-3,
-3,
-3,
4,
-3,
4,
4,
-3,
-3,
0,
0,
4,
-3,
7,
0,
0,
-3,
0,
0,
4,
-3,
0,
4,
-3,
-3,
-3,
-3,
4,
0,
4,
-3,
-3,
0,
-6,
-3,
4,
0,
-3,
-3,
-9,
-3,
0,
0,
-6,
-3,
-3,
-3,
4,
-6,
4,
-3,
-3,
0,
-6,
-6,
0,
-6,
0,
-6,
0,
-3,
-6,
-6,
-3,
-3,
-6,
-6,
0,
-6,
0,
-6,
-6,
-3,
-6,
-6,
-3,
0,
-6,
0,
-3,
-3,
-6,
-6,
0,
-6,
-6,
0,
4,
0,
0,
4,
0,
-3,
0,
0,
4,
-3,
-3,
0,
4,
-6,
4,
-3,
0,
0,
0,
-6,
4,
4,
-3,
-3,
0,
-6,
4,
-3,
-6,
-6,
0,
-3,
-3,
0,
-3,
0,
4,
0,
0,
0,
4,
-3,
7,
0,
-3,
-3,
0,
0,
-6,
-3,
0,
-6,
-3,
-3,
-9,
-3,
-9,
0,
0,
-3,
4,
-3,
0,
-3,
-3,
-6,
0,
-9,
4,
0,
0,
0,
0,
-6,
-9,
-6,
-6,
4,
-6,
-3,
4,
-3,
4,
-3,
-3,
0,
-6,
0,
0,
-3,
0,
-3,
4,
-3,
0,
-3,
-3,
-3,
4,
0,
-6,
0,
-3,
0,
-3,
-3,
-3,
0,
4,
-3,
-6,
0,
-6,
-6,
0,
0,
-6,
-6,
0,
0,
-6,
-6,
7,
-3,
-3,
-6,
-9,
0,
-3,
-3,
4,
-3,
0,
-3,
-6,
-6,
-3,
-3,
-3,
0,
-6,
-6,
-6,
0,
0,
-3,
-3,
-3,
0,
0,
0,
0,
10,
4,
7,
0,
0,
4,
-6,
-6,
0,
0,
4,
-3,
4,
-3,
0,
-3,
-3,
-3,
-3,
0,
4,
-3,
-3,
0,
-6,
-3,
4,
-3,
0,
-3,
0,
-3,
0,
-6,
4,
-3,
0,
-3,
4,
-3,
-3,
-6,
-6,
-3,
0,
-6,
0,
0,
-3,
0,
0,
4,
0,
-3,
4,
-3,
-3,
-3,
-3,
-3,
7,
-3,
0,
-9,
0,
-3,
-6,
-6,
-6,
-3,
-12,
-3,
-6,
-6,
-6,
-3,
0,
-6,
0,
-3,
0,
0,
0,
0,
-3,
-6,
0,
-3,
0,
-3,
4,
-6,
-3,
0,
-3,
0,
4,
-3,
0,
-9,
4,
-3,
-3,
-3,
-3,
-3,
0,
0,
-6,
-3,
-6,
-3,
-6,
0,
-3,
-3,
0,
-3,
-6,
0,
0,
0,
-3,
-6,
-3,
0,
-3,
-3,
-3,
-6,
-6,
-6,
-6,
-3,
4,
-3,
0,
-3,
0,
-6,
4,
0,
4,
-3,
4,
-3,
-3,
-3,
4,
0,
0,
0,
0,
-3,
4,
0,
7,
-3,
4,
4,
-6,
0,
-3,
0,
4,
0,
0,
-3,
-3,
-3,
-3,
0,
0,
-6,
-3,
0,
-3,
-3,
0,
-3,
0,
-6,
-6,
-6,
-9,
0,
-6,
-3,
-6,
-3,
0,
-6,
0,
0,
-6,
-9,
0,
-3,
-6,
-6,
0,
0,
-6,
-3,
-9,
0,
-3,
-6,
-9,
-3,
0,
0,
-3,
4,
7,
4,
4,
0,
0,
4,
4,
0,
-3,
0,
0,
-3,
4,
-3,
0,
-3,
0,
-3,
-3,
-3,
0,
-3,
-3,
-3,
4,
7,
0,
0,
4,
-6,
0,
-6,
4,
-3,
0,
-3,
-3,
-3,
-3,
-6,
-3,
0,
0,
-3,
0,
-3,
0,
-3,
0,
0,
4,
-3,
-3,
-3,
0,
-3,
4,
-3,
0,
-6,
0,
-3,
-3,
-6,
-3,
-6,
-3,
-6,
-3,
-6,
0,
0,
4,
0,
4,
-3,
4,
4,
0,
-3,
0,
0,
0,
-3,
-6,
-3,
-3,
-6,
-3,
-3,
-6,
-6,
4,
0,
0,
-6,
4,
0,
4,
-6,
4,
0,
-3,
0,
0,
0,
-9,
-3,
0,
0,
-9,
-6,
-6,
0,
-6,
-3,
-3,
-3,
-6,
-3,
-3,
0,
4,
0,
4,
0,
0,
-6,
7,
0,
0,
-3,
0,
0,
0,
-3,
-3,
-6,
-3,
0,
-6,
-3,
-6,
0,
4,
-6,
-3,
-3,
4,
-3,
-3,
-3,
-6,
-3,
-6,
-3,
0,
0,
-9,
-6,
4,
-3,
0,
-6,
-6,
4,
-3,
-3,
-3,
-3,
-9,
0,
0,
-3,
0,
-3,
0,
0,
4,
0,
-3,
-3,
0,
-6,
-6,
-3,
-3,
-6,
4,
0,
-3,
-6,
-3,
0,
0,
-3,
0,
-6,
4,
-6,
0,
-3,
0,
-3,
-3,
-6,
-3,
4,
4,
-3,
-9,
0,
-9,
-6,
-3,
-6,
-3,
-9,
4,
-6,
0,
-6,
4,
-3,
4,
-6,
-3,
0,
4,
-6,
4,
-3,
4,
-3,
4,
-6,
0,
-3,
-9,
-3,
-6,
-6,
4,
0,
-3,
-6,
-3,
-3,
4,
-6,
-3,
-3,
7,
-6,
0,
-6,
-3,
-3,
-3,
0,
-3,
-3,
-3,
-3,
4,
-6,
0,
-3,
0,
-12,
0,
-3,
-3,
-9,
0,
-3,
0,
0,
-3,
-3,
-3,
-6,
0,
-3,
-6,
-3,
-3,
-6,
0,
-3,
-9,
-3,
-3,
-3,
4,
-6,
-3,
-3,
-6,
-3,
-3,
-6,
-9,
-3,
0,
-6,
-12,
-3,
-3,
-3,
-3,
-3,
-6,
-3,
-9,
-3,
-3,
-3,
-3,
-9,
-6,
0,
0,
-3,
0,
-6,
-3,
-3,
-9,
0,
-6,
-3,
-6,
4,
-9,
-6,
-3,
-6,
-3,
-3,
-3,
-6,
0,
-3,
0,
-6,
-3,
-3,
-6,
-6,
-3,
-6,
-6,
-3,
-3,
0,
4,
-6,
7,
0,
-3,
-3,
0,
4,
0,
-3,
0,
-3,
0,
0,
-3,
4,
0,
0,
0,
-6,
4,
-3,
-3,
-6,
-3,
-3,
0,
-3,
-6,
-3,
-3,
-6,
-6,
-6,
-3,
-3,
-6,
-6,
-6,
-3,
-6,
-6,
-9,
-3,
-6,
-3,
-6,
-6,
0,
-3,
-3,
0,
-3,
-6,
-3,
-3,
-3,
-6,
0,
-6,
0,
-9,
-6,
-3,
0,
-6,
0,
-3,
0,
-6,
-6,
-6,
-6,
-6,
-6,
-6,
-3,
0,
-3,
-3,
4,
-3,
0,
-3,
0,
0,
-3,
0,
0,
-3,
-3,
-3,
-9,
-3,
-6,
-3,
0,
-6,
-3,
-3,
-6,
-3,
-3,
-6,
-6,
-6,
-6,
0,
-9,
-3,
-6,
-9,
-9,
-3,
-3,
-3,
-6,
-3,
-3,
-6,
-6,
-3,
-6,
-6,
-9,
-6,
0,
-3,
-3,
0,
0,
-9,
-6,
-6,
-9,
0,
0,
-3,
0,
-9,
-9,
-6,
-3,
-6,
-9,
-6,
4,
-6,
0,
0,
-6,
-3,
-3,
-3,
-6,
0,
0,
-3,
0,
-6,
-9,
4,
0,
0,
4,
-3,
-6,
-6,
-6,
-3,
-6,
-6,
0,
-3,
-3,
-3,
-6,
0,
4,
-3,
0,
-3,
4,
4,
-3,
0,
0,
-3,
4,
-6,
0,
0,
-3,
-6,
-3,
-3,
4,
-3,
-3,
-6,
-6,
-6,
0,
0,
0,
-3,
4,
-6,
-3,
-3,
0,
-3,
-6,
-6,
-6,
0,
-6,
-3,
0,
-6,
4,
-3,
0,
0,
4,
0,
0,
7,
-3,
-3,
-3,
0,
-3,
-3,
0,
-3,
4,
4,
0,
-6,
-3,
-3,
-6,
-6,
-3,
-3,
0,
0,
0,
-6,
-3,
-3,
-6,
-3,
-6,
-3,
0,
-3,
-6,
-3,
-3,
-3,
-3,
0,
-6,
-6,
0,
-6,
-6,
-6,
-6,
-3,
-9,
-3,
-3,
-3,
-6,
-3,
0,
-6,
-6,
-6,
-3,
-3,
-6,
-6,
-9,
-6,
-3,
-6,
-6,
-6,
0,
0,
-3,
-6,
-6,
-3,
0,
-6,
0,
0,
-6,
-6,
0,
0,
0,
-6,
0,
-6,
0,
-3,
0,
-3,
-3,
-6,
4,
-6,
-6,
-6,
-6,
-9,
-3,
-6,
0,
-3,
-3,
0,
-3,
-3,
-6,
-3,
-3,
-6,
4,
-3,
0,
-6,
0,
0,
0,
-3,
0,
-3,
0,
-3,
0,
0,
-3,
-6,
0,
-3,
4,
-6,
0,
0,
0,
-3,
4,
-3,
-6,
-3,
4,
-6,
-6,
-3,
7,
0,
-9,
-6,
0,
-3,
-3,
4,
-9,
0,
-6,
-3,
0,
-3,
-9,
0,
-6,
-9,
-9,
-3,
0,
-3,
-6,
-3,
-6,
-3,
-9,
0,
-3,
4,
0,
-6,
0,
-3,
-6,
-3,
-6,
4,
0,
4,
0,
0,
-3,
-3,
-9,
0,
-6,
-9,
0,
-6,
-3,
-3,
4,
0,
-6,
0,
0,
0,
0,
-3,
0,
0,
0,
-6,
4,
-6,
-6,
-6,
-6,
-3,
-3,
-6,
0,
-6,
-3,
-3,
-3,
4,
-3,
-3,
-6,
-6,
-6,
-3,
-3,
-3,
-6,
-3,
-6,
0,
-3,
-3,
0,
-6,
-9,
-3,
-3,
-6,
-3,
-3,
0,
-3,
-6,
-3,
-9,
0,
-6,
0,
0,
-3,
-3,
-3,
-6,
-6,
-9,
-3,
0,
0,
-3,
4,
4,
-3,
-3,
0,
0,
4,
-3,
-3,
0,
0,
0,
4,
-3,
0,
-3,
0,
0,
4,
-6,
-3,
0,
-3,
4,
-3,
0,
-9,
0,
-3,
4,
-3,
4,
0,
0,
-3,
0,
0,
4,
-3,
0,
-6,
4,
-6,
4,
4,
-6,
-3,
-3,
0,
-3,
4,
-3,
0,
7,
-3,
-3,
-3,
-6,
-6,
-6,
0,
0,
0,
-9,
-6,
-6,
-3,
-3,
-6,
-6,
-3,
0,
-3,
0,
4,
0,
-6,
-6,
4,
-6,
-6,
0,
-6,
-6,
-3,
0,
-3,
0,
-3,
7,
-3,
4,
-3,
4,
0,
4,
-6,
4,
-3,
4,
0,
-3,
0,
0,
-3,
-6,
0,
0,
0,
-3,
-3,
0,
0,
-6,
-3,
0,
0,
0,
-6,
0,
-3,
0,
-3,
0,
-6,
4,
0,
0,
-3,
4,
-6,
-3,
-6,
-3,
0,
-9,
-3,
-6,
-6,
-6,
-3,
0,
-3,
0,
-3,
0,
-6,
-3,
0,
0,
-3,
0,
-3,
0,
-3,
0,
0,
-6,
0,
-6,
-3,
-3,
-6,
-6,
0,
-6,
-6,
-9,
-6,
-3,
-3,
-6,
0,
-3,
-6,
-9,
-6,
-6,
-6,
4,
-3,
-6,
-3,
-9,
-3,
-3,
-3,
-6,
0,
0,
-3,
-6,
0,
0,
-6,
-3,
-6,
-3,
-6,
0,
-9,
-6,
-6,
-3,
-9,
-3,
-3,
0,
-6,
-6,
0,
4,
-3,
4,
-3,
7,
-6,
-6,
-3,
-6,
-3,
-9,
-9,
-3,
-3,
4,
-6,
-6,
-3,
0,
-6,
0,
-3,
4,
0,
-3,
-3,
0,
-6,
4,
-6,
0,
-3,
0,
0,
-3,
-3,
0,
-3,
4,
0,
-3,
-3,
0,
-3,
0,
-6,
-3,
-3,
4,
-6,
0,
0,
4,
0,
0,
-6,
0,
4,
-6,
7,
0,
0,
-3,
-3,
0,
-3,
4,
-3,
0,
4,
-6,
0,
4,
-3,
-3,
-3,
4,
-6,
0,
0,
4,
0,
4,
0,
0,
-6,
7,
-3,
-3,
0,
0,
0,
0,
-3,
4,
-3,
-3,
-3,
0,
-3,
0,
-3,
0,
-3,
0,
-3,
7,
0,
0,
0,
-9,
-3,
-3,
-6,
-3,
4,
0,
-3,
-6,
-6,
-9,
-6,
0,
-3,
-3,
-3,
-6,
-6,
0,
0,
4,
-3,
0,
0,
0,
-3,
-9,
-6,
4,
-6,
-3,
-3,
-3,
-6,
-6,
0,
-3,
0,
-3,
0,
-6,
-3,
-6,
-6,
-3,
-3,
4,
-3,
-6,
-3,
-3,
-3,
0,
0,
0,
-6,
-3,
-9,
0,
-3,
4,
-3,
-6,
-6,
-3,
0,
-6,
0,
0,
-3,
-9,
-3,
-3,
0,
0,
-3,
0,
-3,
-3,
-3,
-9,
0,
-6,
0,
-6,
-3,
-3,
-3,
-6,
-6,
0,
-6,
0,
-3,
-6,
-6,
-6,
-6,
-6,
-6,
-6,
-3,
4,
-3,
-9,
-3,
0,
0,
-3,
-6,
-6,
0,
0,
-6,
0,
-3,
-3,
0,
-6,
-3,
0,
-3,
-3,
-3,
0,
-3,
4,
-6,
0,
-3,
0,
-3,
0,
-3,
0,
-3,
4,
-3,
0,
-6,
0,
0,
0,
4,
4,
7,
4,
0,
0,
-3,
4,
0,
-3,
-3,
0,
0,
-3,
0,
0,
-3,
0,
4,
4,
4,
0,
0,
4,
-3,
4,
-3,
0,
-6,
-3,
0,
4,
-6,
0,
-3,
0,
0,
-3,
-3,
0,
0,
0,
-3,
0,
-3,
0,
0,
0,
0,
-3,
-3,
-3,
0,
7,
0,
0,
-6,
4,
-6,
0,
-6,
-6,
-9,
4,
-3,
-3,
-3,
-3,
-6,
-3,
-3,
-3,
-6,
4,
-3,
-3,
-6,
-6,
-6,
0,
0,
-3,
0,
-3,
0,
0,
0,
4,
-3,
-3,
4,
-3,
-3,
0,
-3,
-3,
-6,
4,
-3,
0,
-9,
4,
-6,
-3,
-3,
4,
-3,
0,
-6,
-3,
-3,
0,
-6,
-3,
-6,
-3,
-3,
-6,
-3,
-3,
-3,
-9,
-9,
-9,
-3,
0,
-6,
0,
-6,
0,
-3,
-6,
-6,
-3,
-6,
-6,
-3,
-6,
-3,
-3,
-3,
0,
-6,
-6,
-6,
-6,
-3,
0,
-3,
0,
-3,
4,
-3,
0,
-6,
-3,
-3,
-3,
-6,
-3,
-6,
-3,
0,
-9,
-3,
-6,
-3,
-3,
-3,
-3,
-3,
-6,
-6,
0,
-6,
-3,
-3,
-3,
-6,
0,
-6,
0,
-6,
-3,
-6,
0,
-6,
4,
0,
-3,
-3,
-3,
-6,
0,
0,
-3,
-9,
0,
0,
-6,
-3,
4,
0,
0,
0,
4,
0,
0,
-3,
0,
-6,
7,
-3,
4,
-3,
-3,
-6,
4,
0,
-3,
-3,
7,
-3,
0,
-3,
-3,
-9,
-3,
-3,
-3,
-3,
-6,
-3,
-6,
-9,
-3,
-6,
-6,
0,
-9,
-3,
-6,
-6,
-6,
0,
-6,
4,
-3,
-3,
-6,
-3,
-3,
-3,
-3,
-6,
4,
0,
4,
-3,
0,
0,
4,
4,
-3,
-3,
0,
-3,
-6,
-3,
-3,
0,
-6,
4,
0,
-3,
-3,
-6,
4,
-6,
0,
-3,
-6,
-3,
0,
-6,
-6,
-6,
-6,
-6,
-3,
-3,
0,
0,
4,
-6,
-9,
-3,
-6,
-3,
0,
-3,
-6,
-3,
0,
-6,
4,
-9,
0,
-3,
-3,
-3,
0,
-6,
-6,
0,
0,
-3,
0,
-6,
-6,
-6,
0,
-3,
0,
-6,
4,
-3,
4,
-3,
4,
4,
-6,
0,
-3,
-6,
0,
7,
0,
-3,
0,
-3,
-6,
-3,
0,
0,
-3,
-6,
0,
0,
0,
0,
0,
-3,
-3,
-3,
0,
0,
0,
-3,
0,
-6,
4,
-6,
4,
-3,
0,
-9,
-3,
-3,
0,
-6,
-3,
-3,
0,
0,
0,
-3,
-6,
-3,
-6,
-3,
-6,
-3,
-6,
-3,
-3,
-3,
0,
0,
-3,
-6,
-3,
-3,
-3,
-3,
-3,
-3,
-6,
0,
-3,
-6,
-6,
0,
-6,
-6,
-6,
0,
0,
-3,
-3,
0,
-3,
4,
0,
0,
4,
-3,
4,
4,
0,
-3,
4,
-3,
-3,
0,
-6,
-3,
0,
-3,
0,
-3,
-3,
-6,
4,
-3,
-9,
4,
4,
-3,
-3,
0,
-6,
0,
-3,
-3,
0,
0,
-3,
-3,
-6,
-3,
-9,
-6,
0,
-6,
-3,
-3,
-6,
-6,
-9,
-6,
-6,
-6,
0,
-6,
4,
-3,
0,
0,
0,
-3,
0,
0,
4,
-6,
0,
-6,
0,
-3,
4,
0,
-3,
-3,
-3,
-3,
4,
-3,
0,
4,
-6,
0,
0,
-6,
-3,
-3,
4,
-6,
0,
-3,
0,
0,
-3,
0,
0,
-3,
0,
-6,
4,
4,
4,
-3,
4,
0,
-3,
-3,
0,
-3,
-3,
-3,
4,
-3,
4,
-3,
-3,
-6,
-3,
0,
0,
-3,
0,
-3,
0,
-3,
4,
-3,
-6,
-6,
-6,
-3,
-3,
-3,
0,
-6,
4,
0,
-6,
-6,
-6,
-3,
-6,
-6,
-3,
-3,
-12,
-3,
-6,
-6,
0,
-6,
0,
-6,
0,
-6,
-9,
-3,
0,
0,
-9,
-6,
-6,
-3,
0,
0,
4,
-6,
-9,
0,
4,
-3,
0,
-3,
0,
-6,
0,
-3,
-3,
0,
4,
-6,
0,
-6,
0,
-6,
-3,
0,
-3,
0,
4,
-6,
-6,
0,
0,
-3,
4,
-6,
0,
-3,
4,
-3,
0,
-3,
-6,
-3,
-3,
-3,
4,
0,
0,
-6,
0,
-3,
0,
-3,
